A 0 176 fill_color=colora
A 176 314 fill_color=colorb
A 314 448 fill_color=colord
A 448 502 fill_color=colorc
C 0 131 fill_color=colord
C 131 228 fill_color=colorc
C 228 311 fill_color=colora
C 311 372 fill_color=colorb
D 0 162 fill_color=colora
D 162 272 fill_color=colorc
D 272 311 fill_color=colorb
D 311 343 fill_color=colord
B 0 151 fill_color=colorb
B 151 248 fill_color=colora
B 248 344 fill_color=colorc
B 344 427 fill_color=colord
