\relax 
\providecommand\hyper@newdestlabel[2]{}
\providecommand\zref@newlabel[2]{}
\providecommand*{\memsetcounter}[2]{}
\providecommand\HyperFirstAtBeginDocument{\AtBeginDocument}
\HyperFirstAtBeginDocument{\ifx\hyper@anchor\@undefined
\global\let\oldcontentsline\contentsline
\gdef\contentsline#1#2#3#4{\oldcontentsline{#1}{#2}{#3}}
\global\let\oldnewlabel\newlabel
\gdef\newlabel#1#2{\newlabelxx{#1}#2}
\gdef\newlabelxx#1#2#3#4#5#6{\oldnewlabel{#1}{{#2}{#3}}}
\AtEndDocument{\ifx\hyper@anchor\@undefined
\let\contentsline\oldcontentsline
\let\newlabel\oldnewlabel
\fi}
\fi}
\global\let\hyper@last\relax 
\gdef\HyperFirstAtBeginDocument#1{#1}
\providecommand\HyField@AuxAddToFields[1]{}
\providecommand\HyField@AuxAddToCoFields[2]{}
\@writefile{toc}{\contentsline {chapter}{Contents}{2}{section*.1}}
\@writefile{lof}{\addvspace {10pt}}
\@writefile{lot}{\addvspace {10pt}}
\@writefile{toc}{\contentsline {chapter}{\chapternumberline {1}Introduction}{3}{chapter.1}}
\@writefile{toc}{\contentsline {section}{\numberline {1.1}About this handout}{3}{section.1.1}}
\@writefile{toc}{\contentsline {section}{\numberline {1.2}Course Summary}{4}{section.1.2}}
\@writefile{toc}{\contentsline {section}{\numberline {1.3}Computer Setup}{4}{section.1.3}}
\@writefile{toc}{\contentsline {section}{\numberline {1.4}The Ubuntu Desktop}{5}{section.1.4}}
\@writefile{toc}{\contentsline {section}{\numberline {1.5}Workstation setup and program installation}{6}{section.1.5}}
\@writefile{toc}{\contentsline {section}{\numberline {1.6}Web sites and references}{7}{section.1.6}}
\@writefile{lof}{\addvspace {10pt}}
\@writefile{lot}{\addvspace {10pt}}
\@writefile{toc}{\contentsline {chapter}{\chapternumberline {2}Introduction to Circos}{8}{chapter.2}}
\@writefile{toc}{\contentsline {section}{\numberline {2.1}Examples of Circos plots}{9}{section.2.1}}
\@writefile{toc}{\contentsline {section}{\numberline {2.2}Why is Circos so complicated?}{10}{section.2.2}}
\@writefile{lof}{\contentsline {figure}{\numberline {2.1}{\ignorespaces A basic Circos plot and config data}}{10}{figure.2.1}}
\newlabel{minimal_circos}{{\M@TitleReference {2.1}{A basic Circos plot and config data}}{10}{A basic Circos plot and config data}{figure.2.1}{}}
\@writefile{toc}{\contentsline {section}{\numberline {2.3}J-Circos}{12}{section.2.3}}
\@writefile{lof}{\contentsline {figure}{\numberline {2.2}{\ignorespaces \relax \fontsize  {10.95}{13.6}\selectfont  \abovedisplayskip 11\p@ plus3\p@ minus6\p@ \abovedisplayshortskip \z@ plus3\p@ \belowdisplayshortskip 6.5\p@ plus3.5\p@ minus3\p@ \def \leftmargin \leftmargini \parsep \parsepi \topsep \topsepi \itemsep \itemsepi {\leftmargin \leftmargini \topsep 9\p@ plus3\p@ minus5\p@ \parsep 4.5\p@ plus2\p@ minus\p@ \itemsep \parsep }\belowdisplayskip \abovedisplayskip An et al. (2014) \textit  {Bioinformatics} DOI: 10.1093/bioinformatics/btu842}}{13}{figure.2.2}}
\newlabel{jcircos_datatypes}{{\M@TitleReference {2.2}{\relax \fontsize  {10.95}{13.6}\selectfont  \abovedisplayskip 11\p@ plus3\p@ minus6\p@ \abovedisplayshortskip \z@ plus3\p@ \belowdisplayshortskip 6.5\p@ plus3.5\p@ minus3\p@ \def \leftmargin \leftmargini \parsep \parsepi \topsep \topsepi \itemsep \itemsepi {\leftmargin \leftmargini \topsep 9\p@ plus3\p@ minus5\p@ \parsep 4.5\p@ plus2\p@ minus\p@ \itemsep \parsep }\belowdisplayskip \abovedisplayskip An et al. (2014) \textit  {Bioinformatics} DOI: 10.1093/bioinformatics/btu842}}{13}{\small An et al. (2014) \textit {Bioinformatics} DOI: 10.1093/bioinformatics/btu842}{figure.2.2}{}}
\@writefile{toc}{\contentsline {subsection}{\numberline {2.3.1}Standard genomics data format}{13}{subsection.2.3.1}}
\@writefile{lof}{\contentsline {figure}{\numberline {2.3}{\ignorespaces J-Circos displaying some bundled demo data tracks.}}{14}{figure.2.3}}
\newlabel{jcircos_std_data}{{\M@TitleReference {2.3}{J-Circos displaying some bundled demo data tracks.}}{14}{J-Circos displaying some bundled demo data tracks}{figure.2.3}{}}
\@writefile{toc}{\contentsline {subsection}{\numberline {2.3.2}Interactive elements}{15}{subsection.2.3.2}}
\@writefile{toc}{\contentsline {subsection}{\numberline {2.3.3}Other data types}{16}{subsection.2.3.3}}
\@writefile{lof}{\contentsline {figure}{\numberline {2.4}{\ignorespaces J-Circos bridges}}{17}{figure.2.4}}
\newlabel{jcircos_bridges}{{\M@TitleReference {2.4}{J-Circos bridges}}{17}{J-Circos bridges}{figure.2.4}{}}
\@writefile{lof}{\contentsline {figure}{\numberline {2.5}{\ignorespaces J-Circos labels.}}{19}{figure.2.5}}
\newlabel{jcircos_label}{{\M@TitleReference {2.5}{J-Circos labels.}}{19}{J-Circos labels}{figure.2.5}{}}
\@writefile{lof}{\contentsline {figure}{\numberline {2.6}{\ignorespaces J-Circos texts}}{20}{figure.2.6}}
\newlabel{jcircos_texts}{{\M@TitleReference {2.6}{J-Circos texts}}{20}{J-Circos texts}{figure.2.6}{}}
\@writefile{lof}{\contentsline {figure}{\numberline {2.7}{\ignorespaces J-Circos Circos-wiggle}}{21}{figure.2.7}}
\newlabel{jcircos_wiggle}{{\M@TitleReference {2.7}{J-Circos Circos-wiggle}}{21}{J-Circos Circos-wiggle}{figure.2.7}{}}
\@writefile{toc}{\contentsline {subsection}{\numberline {2.3.4}Customising figure size and chromosomes}{22}{subsection.2.3.4}}
\@writefile{toc}{\contentsline {section}{\numberline {2.4}Circos Table Viewer}{25}{section.2.4}}
\@writefile{lof}{\addvspace {10pt}}
\@writefile{lot}{\addvspace {10pt}}
\@writefile{toc}{\contentsline {chapter}{\chapternumberline {3}Circos}{26}{chapter.3}}
\@writefile{toc}{\contentsline {section}{\numberline {3.1}A very brief primer on Linux command-line}{27}{section.3.1}}
\@writefile{toc}{\contentsline {section}{\numberline {3.2}Circos from command-line}{28}{section.3.2}}
\@writefile{toc}{\contentsline {section}{\numberline {3.3}A basic Circos plot}{30}{section.3.3}}
\@writefile{toc}{\contentsline {subsection}{\numberline {3.3.1}Comments, spaces, blank lines}{30}{subsection.3.3.1}}
\@writefile{toc}{\contentsline {subsection}{\numberline {3.3.2}Configuration file structure}{30}{subsection.3.3.2}}
\@writefile{toc}{\contentsline {section}{\numberline {3.4}Karyotype ideogram}{32}{section.3.4}}
\@writefile{toc}{\contentsline {subsection}{\numberline {3.4.1}Chromosomes}{33}{subsection.3.4.1}}
\newlabel{circos_chromosomes}{{\M@TitleReference {3.4.1}{Circos}}{33}{Chromosomes}{subsection.3.4.1}{}}
\@writefile{toc}{\contentsline {subsection}{\numberline {3.4.2}Ideogram block}{35}{subsection.3.4.2}}
\@writefile{toc}{\contentsline {subsection}{\numberline {3.4.3}Image block}{39}{subsection.3.4.3}}
\@writefile{toc}{\contentsline {subsection}{\numberline {3.4.4}Ticks block}{39}{subsection.3.4.4}}
\@writefile{toc}{\contentsline {subsection}{\numberline {3.4.5}Importing files, file paths and overriding values}{40}{subsection.3.4.5}}
\@writefile{toc}{\contentsline {subsection}{\numberline {3.4.6}Colors, Fonts, Patterns}{41}{subsection.3.4.6}}
\@writefile{toc}{\contentsline {section}{\numberline {3.5}Links}{43}{section.3.5}}
\@writefile{toc}{\contentsline {section}{\numberline {3.6}Other data types}{44}{section.3.6}}
\memsetcounter{lastsheet}{44}
\memsetcounter{lastpage}{44}
