PWD /home/puck/workshop/circos/handout
INPUT /etc/texmf/web2c/texmf.cnf
INPUT /usr/share/texmf/web2c/texmf.cnf
INPUT /usr/share/texlive/texmf-dist/web2c/texmf.cnf
INPUT /var/lib/texmf/web2c/pdftex/pdflatex.fmt
INPUT circos.tex
OUTPUT trainee_circos.log
INPUT /usr/share/texlive/texmf-dist/tex/latex/memoir/memoir.cls
INPUT /usr/share/texlive/texmf-dist/tex/latex/memoir/memoir.cls
INPUT /usr/share/texlive/texmf-dist/tex/generic/oberdiek/ifpdf.sty
INPUT /usr/share/texlive/texmf-dist/tex/generic/oberdiek/ifpdf.sty
INPUT /usr/share/texlive/texmf-dist/tex/generic/oberdiek/ifpdf.sty
INPUT /usr/share/texlive/texmf-dist/tex/generic/ifxetex/ifxetex.sty
INPUT /usr/share/texlive/texmf-dist/tex/generic/ifxetex/ifxetex.sty
INPUT /usr/share/texlive/texmf-dist/tex/generic/ifxetex/ifxetex.sty
INPUT /usr/share/texlive/texmf-dist/tex/generic/oberdiek/ifluatex.sty
INPUT /usr/share/texlive/texmf-dist/tex/generic/oberdiek/ifluatex.sty
INPUT /usr/share/texlive/texmf-dist/tex/generic/oberdiek/ifluatex.sty
INPUT /usr/share/texlive/texmf-dist/tex/latex/etex-pkg/etex.sty
INPUT /usr/share/texlive/texmf-dist/tex/latex/etex-pkg/etex.sty
INPUT /usr/share/texlive/texmf-dist/tex/latex/etex-pkg/etex.sty
INPUT /usr/share/texlive/texmf-dist/tex/latex/memoir/mem12.clo
INPUT /usr/share/texlive/texmf-dist/tex/latex/memoir/mem12.clo
INPUT /usr/share/texlive/texmf-dist/fonts/map/fontname/texfonts.map
INPUT /usr/share/texlive/texmf-dist/fonts/tfm/public/cm/cmr12.tfm
INPUT /usr/share/texlive/texmf-dist/fonts/tfm/public/cm/cmr10.tfm
INPUT /usr/share/texlive/texmf-dist/tex/latex/memoir/mempatch.sty
INPUT /usr/share/texlive/texmf-dist/tex/latex/memoir/mempatch.sty
INPUT /usr/share/texlive/texmf-dist/tex/latex/memoir/mempatch.sty
INPUT btp.sty
INPUT btp.sty
INPUT /usr/share/texlive/texmf-dist/tex/latex/fancyhdr/fancyhdr.sty
INPUT /usr/share/texlive/texmf-dist/tex/latex/fancyhdr/fancyhdr.sty
INPUT /usr/share/texlive/texmf-dist/tex/latex/listings/listings.sty
INPUT /usr/share/texlive/texmf-dist/tex/latex/listings/listings.sty
INPUT /usr/share/texlive/texmf-dist/tex/latex/graphics/keyval.sty
INPUT /usr/share/texlive/texmf-dist/tex/latex/graphics/keyval.sty
INPUT /usr/share/texlive/texmf-dist/tex/latex/listings/lstmisc.sty
INPUT /usr/share/texlive/texmf-dist/tex/latex/listings/lstmisc.sty
INPUT /usr/share/texlive/texmf-dist/tex/latex/listings/listings.cfg
INPUT /usr/share/texlive/texmf-dist/tex/latex/listings/listings.cfg
INPUT /usr/share/texlive/texmf-dist/tex/latex/psnfss/courier.sty
INPUT /usr/share/texlive/texmf-dist/tex/latex/psnfss/courier.sty
INPUT /usr/share/texlive/texmf-dist/tex/latex/graphics/color.sty
INPUT /usr/share/texlive/texmf-dist/tex/latex/graphics/color.sty
INPUT /usr/share/texlive/texmf-dist/tex/latex/latexconfig/color.cfg
INPUT /usr/share/texlive/texmf-dist/tex/latex/latexconfig/color.cfg
INPUT /usr/share/texlive/texmf-dist/tex/latex/pdftex-def/pdftex.def
INPUT /usr/share/texlive/texmf-dist/tex/latex/pdftex-def/pdftex.def
INPUT /usr/share/texlive/texmf-dist/tex/generic/oberdiek/infwarerr.sty
INPUT /usr/share/texlive/texmf-dist/tex/generic/oberdiek/infwarerr.sty
INPUT /usr/share/texlive/texmf-dist/tex/generic/oberdiek/ltxcmds.sty
INPUT /usr/share/texlive/texmf-dist/tex/generic/oberdiek/ltxcmds.sty
INPUT /usr/share/texlive/texmf-dist/tex/latex/graphics/dvipsnam.def
INPUT /usr/share/texlive/texmf-dist/tex/latex/graphics/dvipsnam.def
INPUT /usr/share/texmf/tex/latex/xcolor/xcolor.sty
INPUT /usr/share/texmf/tex/latex/xcolor/xcolor.sty
INPUT /usr/share/texlive/texmf-dist/tex/latex/latexconfig/color.cfg
INPUT /usr/share/texlive/texmf-dist/tex/latex/latexconfig/color.cfg
INPUT /usr/share/texlive/texmf-dist/tex/latex/colortbl/colortbl.sty
INPUT /usr/share/texlive/texmf-dist/tex/latex/colortbl/colortbl.sty
INPUT /usr/share/texlive/texmf-dist/tex/latex/graphics/graphicx.sty
INPUT /usr/share/texlive/texmf-dist/tex/latex/graphics/graphicx.sty
INPUT /usr/share/texlive/texmf-dist/tex/latex/graphics/graphics.sty
INPUT /usr/share/texlive/texmf-dist/tex/latex/graphics/graphics.sty
INPUT /usr/share/texlive/texmf-dist/tex/latex/graphics/trig.sty
INPUT /usr/share/texlive/texmf-dist/tex/latex/graphics/trig.sty
INPUT /usr/share/texlive/texmf-dist/tex/latex/latexconfig/graphics.cfg
INPUT /usr/share/texlive/texmf-dist/tex/latex/latexconfig/graphics.cfg
INPUT /usr/share/texlive/texmf-dist/tex/latex/hyperref/hyperref.sty
INPUT /usr/share/texlive/texmf-dist/tex/latex/hyperref/hyperref.sty
INPUT /usr/share/texlive/texmf-dist/tex/generic/oberdiek/hobsub-hyperref.sty
INPUT /usr/share/texlive/texmf-dist/tex/generic/oberdiek/hobsub-hyperref.sty
INPUT /usr/share/texlive/texmf-dist/tex/generic/oberdiek/hobsub-hyperref.sty
INPUT /usr/share/texlive/texmf-dist/tex/generic/oberdiek/hobsub-generic.sty
INPUT /usr/share/texlive/texmf-dist/tex/generic/oberdiek/hobsub-generic.sty
INPUT /usr/share/texlive/texmf-dist/tex/latex/oberdiek/auxhook.sty
INPUT /usr/share/texlive/texmf-dist/tex/latex/oberdiek/auxhook.sty
INPUT /usr/share/texlive/texmf-dist/tex/latex/oberdiek/kvoptions.sty
INPUT /usr/share/texlive/texmf-dist/tex/latex/oberdiek/kvoptions.sty
INPUT /usr/share/texlive/texmf-dist/tex/latex/hyperref/pd1enc.def
INPUT /usr/share/texlive/texmf-dist/tex/latex/hyperref/pd1enc.def
INPUT /usr/share/texlive/texmf-dist/tex/latex/latexconfig/hyperref.cfg
INPUT /usr/share/texlive/texmf-dist/tex/latex/latexconfig/hyperref.cfg
INPUT /usr/share/texlive/texmf-dist/tex/latex/url/url.sty
INPUT /usr/share/texlive/texmf-dist/tex/latex/url/url.sty
INPUT /usr/share/texlive/texmf-dist/tex/latex/memoir/memhfixc.sty
INPUT /usr/share/texlive/texmf-dist/tex/latex/memoir/memhfixc.sty
INPUT /usr/share/texlive/texmf-dist/tex/latex/hyperref/hpdftex.def
INPUT /usr/share/texlive/texmf-dist/tex/latex/hyperref/hpdftex.def
INPUT /usr/share/texlive/texmf-dist/tex/latex/oberdiek/rerunfilecheck.sty
INPUT /usr/share/texlive/texmf-dist/tex/latex/oberdiek/rerunfilecheck.sty
INPUT /usr/share/texmf/tex/latex/fullpage/fullpage.sty
INPUT /usr/share/texmf/tex/latex/fullpage/fullpage.sty
INPUT /usr/share/texmf/tex/latex/enumitem/enumitem.sty
INPUT /usr/share/texmf/tex/latex/enumitem/enumitem.sty
INPUT /usr/share/texmf/tex/latex/mdframed/mdframed.sty
INPUT /usr/share/texmf/tex/latex/mdframed/mdframed.sty
INPUT /usr/share/texlive/texmf-dist/tex/latex/l3packages/xparse/xparse.sty
INPUT /usr/share/texlive/texmf-dist/tex/latex/l3packages/xparse/xparse.sty
INPUT /usr/share/texlive/texmf-dist/tex/latex/l3kernel/expl3.sty
INPUT /usr/share/texlive/texmf-dist/tex/latex/l3kernel/expl3.sty
INPUT /usr/share/texlive/texmf-dist/tex/latex/l3kernel/l3names.sty
INPUT /usr/share/texlive/texmf-dist/tex/latex/l3kernel/l3names.sty
INPUT /usr/share/texlive/texmf-dist/tex/latex/l3kernel/l3bootstrap.sty
INPUT /usr/share/texlive/texmf-dist/tex/latex/l3kernel/l3bootstrap.sty
INPUT /usr/share/texlive/texmf-dist/tex/latex/l3kernel/l3basics.sty
INPUT /usr/share/texlive/texmf-dist/tex/latex/l3kernel/l3basics.sty
INPUT /usr/share/texlive/texmf-dist/tex/latex/l3kernel/l3expan.sty
INPUT /usr/share/texlive/texmf-dist/tex/latex/l3kernel/l3expan.sty
INPUT /usr/share/texlive/texmf-dist/tex/latex/l3kernel/l3tl.sty
INPUT /usr/share/texlive/texmf-dist/tex/latex/l3kernel/l3tl.sty
INPUT /usr/share/texlive/texmf-dist/tex/latex/l3kernel/l3seq.sty
INPUT /usr/share/texlive/texmf-dist/tex/latex/l3kernel/l3seq.sty
INPUT /usr/share/texlive/texmf-dist/tex/latex/l3kernel/l3int.sty
INPUT /usr/share/texlive/texmf-dist/tex/latex/l3kernel/l3int.sty
INPUT /usr/share/texlive/texmf-dist/tex/latex/l3kernel/l3quark.sty
INPUT /usr/share/texlive/texmf-dist/tex/latex/l3kernel/l3quark.sty
INPUT /usr/share/texlive/texmf-dist/tex/latex/l3kernel/l3prg.sty
INPUT /usr/share/texlive/texmf-dist/tex/latex/l3kernel/l3prg.sty
INPUT /usr/share/texlive/texmf-dist/tex/latex/l3kernel/l3clist.sty
INPUT /usr/share/texlive/texmf-dist/tex/latex/l3kernel/l3clist.sty
INPUT /usr/share/texlive/texmf-dist/tex/latex/l3kernel/l3token.sty
INPUT /usr/share/texlive/texmf-dist/tex/latex/l3kernel/l3token.sty
INPUT /usr/share/texlive/texmf-dist/tex/latex/l3kernel/l3prop.sty
INPUT /usr/share/texlive/texmf-dist/tex/latex/l3kernel/l3prop.sty
INPUT /usr/share/texlive/texmf-dist/tex/latex/l3kernel/l3msg.sty
INPUT /usr/share/texlive/texmf-dist/tex/latex/l3kernel/l3msg.sty
INPUT /usr/share/texlive/texmf-dist/tex/latex/l3kernel/l3file.sty
INPUT /usr/share/texlive/texmf-dist/tex/latex/l3kernel/l3file.sty
INPUT /usr/share/texlive/texmf-dist/tex/latex/l3kernel/l3skip.sty
INPUT /usr/share/texlive/texmf-dist/tex/latex/l3kernel/l3skip.sty
INPUT /usr/share/texlive/texmf-dist/tex/latex/l3kernel/l3keys.sty
INPUT /usr/share/texlive/texmf-dist/tex/latex/l3kernel/l3keys.sty
INPUT /usr/share/texlive/texmf-dist/tex/latex/l3kernel/l3fp.sty
INPUT /usr/share/texlive/texmf-dist/tex/latex/l3kernel/l3fp.sty
INPUT /usr/share/texlive/texmf-dist/tex/latex/l3kernel/l3box.sty
INPUT /usr/share/texlive/texmf-dist/tex/latex/l3kernel/l3box.sty
INPUT /usr/share/texlive/texmf-dist/tex/latex/l3kernel/l3coffins.sty
INPUT /usr/share/texlive/texmf-dist/tex/latex/l3kernel/l3coffins.sty
INPUT /usr/share/texlive/texmf-dist/tex/latex/l3kernel/l3color.sty
INPUT /usr/share/texlive/texmf-dist/tex/latex/l3kernel/l3color.sty
INPUT /usr/share/texlive/texmf-dist/tex/latex/l3kernel/l3luatex.sty
INPUT /usr/share/texlive/texmf-dist/tex/latex/l3kernel/l3luatex.sty
INPUT /usr/share/texlive/texmf-dist/tex/latex/l3kernel/l3candidates.sty
INPUT /usr/share/texlive/texmf-dist/tex/latex/l3kernel/l3candidates.sty
INPUT /usr/share/texmf/tex/latex/etoolbox/etoolbox.sty
INPUT /usr/share/texmf/tex/latex/etoolbox/etoolbox.sty
INPUT /usr/share/texlive/texmf-dist/tex/latex/oberdiek/zref-abspage.sty
INPUT /usr/share/texlive/texmf-dist/tex/latex/oberdiek/zref-abspage.sty
INPUT /usr/share/texlive/texmf-dist/tex/latex/oberdiek/zref-base.sty
INPUT /usr/share/texlive/texmf-dist/tex/latex/oberdiek/zref-base.sty
INPUT /usr/share/texmf/tex/latex/mdframed/md-frame-0.mdf
INPUT /usr/share/texmf/tex/latex/mdframed/md-frame-0.mdf
INPUT /usr/share/texmf/tex/latex/titlesec/titlesec.sty
INPUT /usr/share/texmf/tex/latex/titlesec/titlesec.sty
INPUT /usr/share/texmf/tex/latex/placeins/placeins.sty
INPUT /usr/share/texmf/tex/latex/placeins/placeins.sty
INPUT /usr/share/texlive/texmf-dist/tex/latex/base/ifthen.sty
INPUT /usr/share/texlive/texmf-dist/tex/latex/base/ifthen.sty
INPUT /usr/share/texmf/tex/latex/xmpincl/xmpincl.sty
INPUT /usr/share/texmf/tex/latex/xmpincl/xmpincl.sty
INPUT licences/CC_Attribution_3.0_Unported.xmp
INPUT licences/CC_Attribution_3.0_Unported.xmp
OUTPUT licences/CC_Attribution_3.0_Unported.xmpi
OUTPUT trainee_circos.pdf
INPUT licences/CC_Attribution_3.0_Unported.xmpi
INPUT /usr/share/texlive/texmf-dist/tex/latex/microtype/microtype.sty
INPUT /usr/share/texlive/texmf-dist/tex/latex/microtype/microtype.sty
INPUT /usr/share/texlive/texmf-dist/tex/latex/microtype/microtype-pdftex.def
INPUT /usr/share/texlive/texmf-dist/tex/latex/microtype/microtype-pdftex.def
INPUT /usr/share/texlive/texmf-dist/tex/latex/microtype/microtype.cfg
INPUT /usr/share/texlive/texmf-dist/tex/latex/microtype/microtype.cfg
INPUT /usr/share/texlive/texmf-dist/tex/latex/microtype/microtype.cfg
INPUT /usr/share/texlive/texmf-dist/tex/latex/oberdiek/accsupp.sty
INPUT /usr/share/texlive/texmf-dist/tex/latex/oberdiek/accsupp.sty
INPUT /usr/share/texlive/texmf-dist/tex/latex/oberdiek/accsupp-pdftex.def
INPUT /usr/share/texlive/texmf-dist/tex/latex/oberdiek/accsupp-pdftex.def
INPUT /usr/share/texlive/texmf-dist/tex/latex/base/textcomp.sty
INPUT /usr/share/texlive/texmf-dist/tex/latex/base/textcomp.sty
INPUT /usr/share/texlive/texmf-dist/tex/latex/base/ts1enc.def
INPUT /usr/share/texlive/texmf-dist/tex/latex/base/ts1enc.def
INPUT /usr/share/texlive/texmf-dist/tex/latex/float/float.sty
INPUT /usr/share/texlive/texmf-dist/tex/latex/float/float.sty
INPUT /usr/share/texmf/tex/latex/lm/lmodern.sty
INPUT /usr/share/texmf/tex/latex/lm/lmodern.sty
INPUT /usr/share/texmf/tex/latex/comment/comment.sty
INPUT /usr/share/texmf/tex/latex/comment/comment.sty
INPUT /usr/share/texmf/tex/latex/lm/ot1lmr.fd
INPUT /usr/share/texmf/tex/latex/lm/ot1lmr.fd
INPUT /usr/share/texmf/fonts/tfm/public/lm/rm-lmr12.tfm
INPUT /usr/share/texmf/fonts/tfm/public/lm/rm-lmr17.tfm
INPUT /usr/share/texmf/tex/latex/lm/ot1lmss.fd
INPUT /usr/share/texmf/tex/latex/lm/ot1lmss.fd
INPUT /usr/share/texmf/fonts/tfm/public/lm/rm-lmss17.tfm
INPUT trainee_circos.aux
INPUT trainee_circos.aux
OUTPUT trainee_circos.aux
INPUT /usr/share/texlive/texmf-dist/tex/latex/base/ts1cmr.fd
INPUT /usr/share/texlive/texmf-dist/tex/latex/base/ts1cmr.fd
INPUT /usr/share/texlive/texmf-dist/tex/context/base/supp-pdf.mkii
INPUT /usr/share/texlive/texmf-dist/tex/context/base/supp-pdf.mkii
INPUT /usr/share/texlive/texmf-dist/tex/latex/oberdiek/epstopdf-base.sty
INPUT /usr/share/texlive/texmf-dist/tex/latex/oberdiek/epstopdf-base.sty
INPUT /usr/share/texlive/texmf-dist/tex/latex/oberdiek/grfext.sty
INPUT /usr/share/texlive/texmf-dist/tex/latex/oberdiek/grfext.sty
INPUT /usr/share/texlive/texmf-dist/tex/latex/latexconfig/epstopdf-sys.cfg
INPUT /usr/share/texlive/texmf-dist/tex/latex/latexconfig/epstopdf-sys.cfg
INPUT /usr/share/texlive/texmf-dist/tex/latex/hyperref/nameref.sty
INPUT /usr/share/texlive/texmf-dist/tex/latex/hyperref/nameref.sty
INPUT /usr/share/texlive/texmf-dist/tex/generic/oberdiek/gettitlestring.sty
INPUT /usr/share/texlive/texmf-dist/tex/generic/oberdiek/gettitlestring.sty
INPUT trainee_circos.out
INPUT trainee_circos.out
INPUT trainee_circos.out
INPUT trainee_circos.out
INPUT ./trainee_circos.out
INPUT ./trainee_circos.out
OUTPUT trainee_circos.out
INPUT /usr/share/texlive/texmf-dist/tex/latex/microtype/mt-cmr.cfg
INPUT /usr/share/texlive/texmf-dist/tex/latex/microtype/mt-cmr.cfg
INPUT /usr/share/texmf/fonts/tfm/public/lm/rm-lmr8.tfm
INPUT /usr/share/texmf/fonts/tfm/public/lm/rm-lmr6.tfm
INPUT /usr/share/texmf/tex/latex/lm/omllmm.fd
INPUT /usr/share/texmf/tex/latex/lm/omllmm.fd
INPUT /usr/share/texmf/fonts/tfm/public/lm/lmmi12.tfm
INPUT /usr/share/texmf/fonts/tfm/public/lm/lmmi8.tfm
INPUT /usr/share/texmf/fonts/tfm/public/lm/lmmi6.tfm
INPUT /usr/share/texmf/tex/latex/lm/omslmsy.fd
INPUT /usr/share/texmf/tex/latex/lm/omslmsy.fd
INPUT /usr/share/texmf/fonts/tfm/public/lm/lmsy10.tfm
INPUT /usr/share/texmf/fonts/tfm/public/lm/lmsy8.tfm
INPUT /usr/share/texmf/fonts/tfm/public/lm/lmsy6.tfm
INPUT /usr/share/texmf/tex/latex/lm/omxlmex.fd
INPUT /usr/share/texmf/tex/latex/lm/omxlmex.fd
INPUT /usr/share/texmf/fonts/tfm/public/lm/lmex10.tfm
INPUT /var/lib/texmf/fonts/map/pdftex/updmap/pdftex.map
INPUT /usr/share/texmf/fonts/tfm/public/lm/rm-lmr17.tfm
INPUT /usr/share/texmf/fonts/tfm/public/lm/rm-lmbx12.tfm
INPUT /usr/share/texmf/fonts/tfm/public/lm/rm-lmbx12.tfm
INPUT images/circos_example_rossello.png
INPUT ./images/circos_example_rossello.png
INPUT ./images/circos_example_rossello.png
INPUT images/circos_example_demo.png
INPUT ./images/circos_example_demo.png
INPUT ./images/circos_example_demo.png
INPUT images/circos_rankandfiled_crop.png
INPUT ./images/circos_rankandfiled_crop.png
INPUT ./images/circos_rankandfiled_crop.png
INPUT /usr/share/texmf/fonts/tfm/public/lm/rm-lmro12.tfm
INPUT ./licences/cc_by.png
INPUT ./licences/cc_by.png
INPUT ./licences/cc_by.png
INPUT /usr/share/texmf/fonts/tfm/public/lm/rm-lmr12.tfm
INPUT /usr/share/texmf/fonts/tfm/public/lm/rm-lmbx12.tfm
INPUT /usr/share/texmf/fonts/tfm/public/lm/rm-lmri12.tfm
INPUT ./licences/cc_by.png
INPUT ./licences/cc_by.png
INPUT ./icons/info.png
INPUT ./icons/info.png
INPUT ./icons/info.png
INPUT ./icons/steps.png
INPUT ./icons/steps.png
INPUT ./icons/steps.png
INPUT ./icons/notes.png
INPUT ./icons/notes.png
INPUT ./icons/notes.png
INPUT ./icons/warning.png
INPUT ./icons/warning.png
INPUT ./icons/warning.png
INPUT ./icons/questions.png
INPUT ./icons/questions.png
INPUT ./icons/questions.png
INPUT ./icons/bonus1.png
INPUT ./icons/bonus1.png
INPUT ./icons/bonus1.png
INPUT ./icons/bonus2.png
INPUT ./icons/bonus2.png
INPUT ./icons/bonus2.png
INPUT /usr/share/texmf/fonts/tfm/public/lm/rm-lmr10.tfm
INPUT /usr/share/texmf/tex/latex/lm/ot1lmtt.fd
INPUT /usr/share/texmf/tex/latex/lm/ot1lmtt.fd
INPUT /usr/share/texmf/fonts/tfm/public/lm/rm-lmtt10.tfm
INPUT /usr/share/texmf/tex/latex/lm/ts1lmtt.fd
INPUT /usr/share/texmf/tex/latex/lm/ts1lmtt.fd
INPUT /usr/share/texmf/fonts/tfm/public/lm/ts1-lmtt10.tfm
INPUT ./licences/cc_by.png
INPUT ./licences/cc_by.png
INPUT trainee_circos.aux
INPUT ./trainee_circos.out
INPUT ./trainee_circos.out
INPUT /usr/share/texmf/fonts/enc/dvips/lm/lm-ts1.enc
INPUT /usr/share/texmf/fonts/enc/dvips/lm/lm-rmtt.enc
INPUT /usr/share/texmf/fonts/enc/dvips/lm/lm-rm.enc
INPUT /usr/share/texmf/fonts/type1/public/lm/lmbx12.pfb
INPUT /usr/share/texmf/fonts/type1/public/lm/lmr12.pfb
INPUT /usr/share/texmf/fonts/type1/public/lm/lmr17.pfb
INPUT /usr/share/texmf/fonts/type1/public/lm/lmr8.pfb
INPUT /usr/share/texmf/fonts/type1/public/lm/lmri12.pfb
INPUT /usr/share/texmf/fonts/type1/public/lm/lmro12.pfb
INPUT /usr/share/texmf/fonts/type1/public/lm/lmtt10.pfb
